<svg width="36" height="36" viewBox="0 0 36 36" fill="none" xmlns="http://www.w3.org/2000/svg">
<g opacity="0.3" clip-path="url(#clip0)">
<path d="M12.7772 25.7916C12.7264 25.7771 12.6743 25.769 12.6219 25.7662C13.3921 24.9567 13.8665 23.8631 13.8665 22.6602V18.961C13.8665 18.9272 13.8632 18.8942 13.8587 18.8617C13.8633 18.7949 13.8665 18.7277 13.8665 18.6598V16.3193C13.8665 15.931 13.5517 15.6162 13.1633 15.6162H8.44727C6.4613 15.6162 4.84566 17.2319 4.84566 19.2178V22.6602C4.84566 23.8631 5.31991 24.9567 6.09019 25.7662C6.03787 25.769 5.98584 25.7771 5.93508 25.7916C2.61232 26.0925 0 28.8931 0 32.2929V35.2969C0 35.6852 0.314789 36 0.703125 36H18.0089C18.3973 36 18.7121 35.6852 18.7121 35.2969V32.2929C18.7121 28.8932 16.0999 26.0926 12.7772 25.7916ZM6.25191 20.1095V19.2178C6.25191 18.0073 7.23677 17.0224 8.44727 17.0224H12.4602V18.6597C12.4602 19.484 11.7896 20.1545 10.9654 20.1545H6.25191V20.1095ZM6.25191 21.5608H10.9654C11.5118 21.5608 12.0234 21.4088 12.4602 21.145V22.6601C12.4602 24.3717 11.0677 25.7643 9.35606 25.7643C7.64444 25.7643 6.25191 24.3717 6.25191 22.6601V21.5608ZM10.8864 27.1706L9.35606 28.701L7.82571 27.1706H10.8864ZM17.3059 34.5938H1.40625V33.1875H4.32422C4.71255 33.1875 5.02734 32.8727 5.02734 32.4844C5.02734 32.0961 4.71255 31.7813 4.32422 31.7813H1.43191C1.66809 29.4106 3.52765 27.5121 5.87953 27.2131L8.85888 30.1925C8.99072 30.3243 9.16959 30.3984 9.35606 30.3984C9.54253 30.3984 9.72141 30.3243 9.85324 30.1925L12.8326 27.2131C15.3515 27.5333 17.3059 29.6884 17.3059 32.2929V34.5938Z" fill="black"/>
<path d="M30.0652 10.1755C30.0144 10.161 29.9623 10.1528 29.9098 10.15C30.6801 9.34052 31.1543 8.24695 31.1543 7.04405V3.34477C31.1543 3.31095 31.1511 3.27797 31.1465 3.24548C31.1511 3.17869 31.1543 3.11147 31.1543 3.04355V0.703125C31.1543 0.314789 30.8395 0 30.4512 0H25.7351C23.7491 0 22.1335 1.61571 22.1335 3.60162V7.04398C22.1335 8.24688 22.6078 9.34045 23.378 10.15C23.3256 10.1528 23.2734 10.1609 23.2226 10.1754C19.9 10.4764 17.2878 13.277 17.2878 16.6766V19.6806C17.2878 20.0689 17.6026 20.3837 17.991 20.3837H23.6483C24.0366 20.3837 24.3514 20.0689 24.3514 19.6806C24.3514 19.2923 24.0366 18.9775 23.6483 18.9775H18.6941V16.6767C18.6941 14.0723 20.6484 11.9171 23.1673 11.597L26.1467 14.5763C26.284 14.7137 26.4639 14.7823 26.6438 14.7823C26.8238 14.7823 27.0038 14.7137 27.141 14.5763L30.1204 11.597C32.6394 11.9172 34.5937 14.0723 34.5937 16.6767V18.9776H29.414C29.0257 18.9776 28.7109 19.2923 28.7109 19.6807C28.7109 20.069 29.0257 20.3838 29.414 20.3838H35.2968C35.6852 20.3838 36 20.069 36 19.6807V16.6767C36 13.2771 33.3878 10.4765 30.0652 10.1755ZM26.644 13.0848L25.1136 11.5545H28.1743L26.644 13.0848ZM29.7481 7.04398C29.7481 8.75559 28.3556 10.1481 26.644 10.1481C24.9324 10.1481 23.5398 8.75566 23.5398 7.04405V5.94464H28.2533C28.7998 5.94464 29.3113 5.79255 29.7481 5.52881V7.04398ZM29.7481 3.04355C29.7481 3.86782 29.0776 4.53839 28.2533 4.53839H23.5398V4.49332V3.60162C23.5398 2.39112 24.5247 1.40625 25.7352 1.40625H29.7481V3.04355Z" fill="black"/>
<path d="M27.1413 19.1834C27.0106 19.0526 26.8291 18.9774 26.6442 18.9774C26.4586 18.9774 26.2779 19.0526 26.1471 19.1834C26.0156 19.3142 25.9411 19.4956 25.9411 19.6805C25.9411 19.8661 26.0156 20.0468 26.1471 20.1776C26.2779 20.3091 26.4586 20.3836 26.6442 20.3836C26.8291 20.3836 27.0106 20.3091 27.1413 20.1776C27.2721 20.0468 27.3474 19.8661 27.3474 19.6805C27.3474 19.4956 27.2721 19.3142 27.1413 19.1834Z" fill="black"/>
<path d="M18.8019 9.83876L15.8614 6.89822V3.51562C15.8614 1.57711 14.2843 0 12.3457 0H3.51562C1.57711 0 0 1.57711 0 3.51562V9.70312C0 11.6416 1.57711 13.2188 3.51562 13.2188H12.3457C13.7993 13.2188 15.0669 12.3464 15.5988 11.0391H18.3047C18.589 11.0391 18.8454 10.8677 18.9543 10.605C19.0631 10.3423 19.0029 10.0399 18.8019 9.83876ZM15.0858 9.63281C14.7582 9.63281 14.474 9.85901 14.4006 10.1783C14.1792 11.1405 13.3343 11.8125 12.3457 11.8125H3.51562C2.35252 11.8125 1.40625 10.8662 1.40625 9.70312V3.51562C1.40625 2.35252 2.35252 1.40625 3.51562 1.40625H12.3457C13.5088 1.40625 14.4551 2.35252 14.4551 3.51562V7.18945C14.4551 7.37592 14.5292 7.5548 14.661 7.68663L16.6072 9.63281H15.0858Z" fill="black"/>
<path d="M32.4844 22.7812H23.6543C22.2007 22.7812 20.9331 23.6536 20.4013 24.9609H17.6954C17.411 24.9609 17.1546 25.1323 17.0457 25.395C16.9369 25.6577 16.9971 25.9601 17.1981 26.1612L20.1386 29.1018V32.4844C20.1386 34.4229 21.7157 36 23.6543 36H32.4844C34.4229 36 36 34.4229 36 32.4844V26.2969C36 24.3584 34.4229 22.7812 32.4844 22.7812ZM34.5938 32.4844C34.5938 33.6475 33.6475 34.5938 32.4844 34.5938H23.6543C22.4912 34.5938 21.545 33.6475 21.545 32.4844V28.8105C21.545 28.6241 21.4709 28.4452 21.339 28.3134L19.3928 26.3672H20.9142C21.2418 26.3672 21.526 26.141 21.5995 25.8217C21.8208 24.8595 22.6657 24.1875 23.6543 24.1875H32.4844C33.6475 24.1875 34.5938 25.1338 34.5938 26.2969V32.4844Z" fill="black"/>
<path d="M31.2297 27.5197C30.9552 27.2452 30.51 27.2452 30.2354 27.5197L28.3663 29.3889L27.4972 28.5197C27.2226 28.2452 26.7774 28.2452 26.5027 28.5197C26.2282 28.7943 26.2282 29.2395 26.5027 29.5142L27.869 30.8805C28.0064 31.0178 28.1863 31.0864 28.3662 31.0864C28.5462 31.0864 28.7262 31.0178 28.8634 30.8805L31.2297 28.5142C31.5043 28.2396 31.5043 27.7944 31.2297 27.5197Z" fill="black"/>
<path d="M11.1272 4.65947C11.0441 3.45382 10.0722 2.48196 8.86654 2.39886C8.18289 2.35182 7.53124 2.58244 7.03202 3.04847C6.53976 3.50796 6.25739 4.15765 6.25739 4.83082C6.25746 5.21923 6.57224 5.53402 6.96058 5.53402C7.34892 5.53402 7.66371 5.21923 7.66371 4.83089C7.66371 4.54184 7.78014 4.27395 7.99164 4.07651C8.20279 3.87936 8.47947 3.78148 8.76993 3.80187C9.27893 3.83696 9.6892 4.24723 9.72429 4.75622C9.75979 5.27084 9.42244 5.72562 8.92216 5.83756C8.37457 5.96004 7.99214 6.43613 7.99214 6.99525V7.37037C7.99214 7.75871 8.30693 8.0735 8.69526 8.0735C9.0836 8.0735 9.39839 7.75871 9.39839 7.37037V7.16576C10.4878 6.84078 11.2068 5.81372 11.1272 4.65947Z" fill="black"/>
<path d="M9.19267 9.5639C9.06189 9.43311 8.88048 9.35788 8.69556 9.35788C8.50993 9.35788 8.32923 9.43311 8.19845 9.5639C8.06696 9.69468 7.99243 9.87608 7.99243 10.061C7.99243 10.2459 8.06696 10.4273 8.19845 10.5581C8.32923 10.6889 8.50993 10.7641 8.69556 10.7641C8.88048 10.7641 9.06189 10.6889 9.19267 10.5581C9.32345 10.4273 9.39868 10.2459 9.39868 10.061C9.39868 9.87608 9.32345 9.69468 9.19267 9.5639Z" fill="black"/>
<path d="M7.63383 31.9873C7.50305 31.8565 7.32164 31.7812 7.13672 31.7812C6.9518 31.7812 6.77039 31.8565 6.63961 31.9873C6.50883 32.118 6.43359 32.2995 6.43359 32.4844C6.43359 32.6693 6.50883 32.8507 6.63961 32.9815C6.77039 33.1123 6.9518 33.1875 7.13672 33.1875C7.32164 33.1875 7.50305 33.1123 7.63383 32.9815C7.76461 32.8507 7.83984 32.6693 7.83984 32.4844C7.83984 32.2995 7.76461 32.118 7.63383 31.9873Z" fill="black"/>
</g>
<defs>
<clipPath id="clip0">
<rect width="36" height="36" fill="white"/>
</clipPath>
</defs>
</svg>
